%YAML 1.1
%TAG !u! tag:unity3d.com,2011:
--- !u!1 &4041239997765936442
GameObject:
  m_ObjectHideFlags: 0
  m_CorrespondingSourceObject: {fileID: 0}
  m_PrefabInstance: {fileID: 0}
  m_PrefabAsset: {fileID: 0}
  serializedVersion: 6
  m_Component:
  - component: {fileID: 5252920313640930643}
  m_Layer: 0
  m_Name: HexBase_SpaceStation
  m_TagString: Untagged
  m_Icon: {fileID: 0}
  m_NavMeshLayer: 0
  m_StaticEditorFlags: 0
  m_IsActive: 1
--- !u!4 &5252920313640930643
Transform:
  m_ObjectHideFlags: 0
  m_CorrespondingSourceObject: {fileID: 0}
  m_PrefabInstance: {fileID: 0}
  m_PrefabAsset: {fileID: 0}
  m_GameObject: {fileID: 4041239997765936442}
  m_LocalRotation: {x: 0, y: 0, z: 0, w: 1}
  m_LocalPosition: {x: 0, y: 0, z: 0}
  m_LocalScale: {x: 1, y: 1, z: 1}
  m_Children:
  - {fileID: 6235515422220847035}
  m_Father: {fileID: 0}
  m_RootOrder: 0
  m_LocalEulerAnglesHint: {x: 0, y: 0, z: 0}
--- !u!1001 &6235515422221245755
PrefabInstance:
  m_ObjectHideFlags: 0
  serializedVersion: 2
  m_Modification:
    m_TransformParent: {fileID: 5252920313640930643}
    m_Modifications:
    - target: {fileID: 100000, guid: 4ceacb27415b8d149af66c1b78f3f489, type: 3}
      propertyPath: m_Name
      value: HexBase_SpaceShip
      objectReference: {fileID: 0}
    - target: {fileID: 400000, guid: 4ceacb27415b8d149af66c1b78f3f489, type: 3}
      propertyPath: m_LocalPosition.x
      value: 0
      objectReference: {fileID: 0}
    - target: {fileID: 400000, guid: 4ceacb27415b8d149af66c1b78f3f489, type: 3}
      propertyPath: m_LocalPosition.y
      value: 0
      objectReference: {fileID: 0}
    - target: {fileID: 400000, guid: 4ceacb27415b8d149af66c1b78f3f489, type: 3}
      propertyPath: m_LocalPosition.z
      value: 0
      objectReference: {fileID: 0}
    - target: {fileID: 400000, guid: 4ceacb27415b8d149af66c1b78f3f489, type: 3}
      propertyPath: m_LocalRotation.x
      value: -0.7071068
      objectReference: {fileID: 0}
    - target: {fileID: 400000, guid: 4ceacb27415b8d149af66c1b78f3f489, type: 3}
      propertyPath: m_LocalRotation.y
      value: -0
      objectReference: {fileID: 0}
    - target: {fileID: 400000, guid: 4ceacb27415b8d149af66c1b78f3f489, type: 3}
      propertyPath: m_LocalRotation.z
      value: -0
      objectReference: {fileID: 0}
    - target: {fileID: 400000, guid: 4ceacb27415b8d149af66c1b78f3f489, type: 3}
      propertyPath: m_LocalRotation.w
      value: 0.7071068
      objectReference: {fileID: 0}
    - target: {fileID: 400000, guid: 4ceacb27415b8d149af66c1b78f3f489, type: 3}
      propertyPath: m_RootOrder
      value: 0
      objectReference: {fileID: 0}
    - target: {fileID: 400000, guid: 4ceacb27415b8d149af66c1b78f3f489, type: 3}
      propertyPath: m_LocalEulerAnglesHint.x
      value: -90
      objectReference: {fileID: 0}
    - target: {fileID: 400000, guid: 4ceacb27415b8d149af66c1b78f3f489, type: 3}
      propertyPath: m_LocalEulerAnglesHint.y
      value: 0
      objectReference: {fileID: 0}
    - target: {fileID: 400000, guid: 4ceacb27415b8d149af66c1b78f3f489, type: 3}
      propertyPath: m_LocalEulerAnglesHint.z
      value: 0
      objectReference: {fileID: 0}
    - target: {fileID: 2300000, guid: 4ceacb27415b8d149af66c1b78f3f489, type: 3}
      propertyPath: m_Materials.Array.data[0]
      value: 
      objectReference: {fileID: 2100000, guid: ed24785af4816de4fa50f64f1cef3b26, type: 2}
    m_RemovedComponents: []
  m_SourcePrefab: {fileID: 100100000, guid: 4ceacb27415b8d149af66c1b78f3f489, type: 3}
--- !u!4 &6235515422220847035 stripped
Transform:
  m_CorrespondingSourceObject: {fileID: 400000, guid: 4ceacb27415b8d149af66c1b78f3f489,
    type: 3}
  m_PrefabInstance: {fileID: 6235515422221245755}
  m_PrefabAsset: {fileID: 0}
