%YAML 1.1
%TAG !u! tag:unity3d.com,2011:
--- !u!114 &114577106921883386
MonoBehaviour:
  m_ObjectHideFlags: 0
  m_CorrespondingSourceObject: {fileID: 0}
  m_PrefabInstance: {fileID: 0}
  m_PrefabAsset: {fileID: 0}
  m_GameObject: {fileID: 1521103681642712382}
  m_Enabled: 1
  m_EditorHideFlags: 0
  m_Script: {fileID: 11500000, guid: 3f7bc082bda8fbd44be8da8e159697b4, type: 3}
  m_Name: 
  m_EditorClassIdentifier: 
  label: {fileID: 8833507243644847395}
  attachOffsetMultiplier: 0.5
  cooldownMax: 3
  partSfx: {fileID: 0}
  partlist:
  - {fileID: 3524593282344965122, guid: 387b3f5a127fcf14392254f1813b86fb, type: 3}
  - {fileID: 3524593282344965122, guid: f123468ea35b48e429b27a75f398ab30, type: 3}
  - {fileID: 3524593282344965122, guid: 3562f21a4d4ee374d8b981ee49714433, type: 3}
  - {fileID: 3524593282344965122, guid: 65cd986ef79e69a4bb642b031a1ea82b, type: 3}
  - {fileID: 3524593282344965122, guid: 653a9b16ceed1bb4caaf953c5bdf6605, type: 3}
  - {fileID: 3524593282344965122, guid: e4fe0521d29fabd4396280addaaefde9, type: 3}
  - {fileID: 3524593282344965122, guid: bb6bd53a6ef5cdc42ad9b6f6442d6c9b, type: 3}
  - {fileID: 3524593282344965122, guid: 9f54ea7e9f039cb4ca00b76429a85a73, type: 3}
  - {fileID: 3524593282344965122, guid: ee0ba9c047a14a749b7de2cc6ad4fd5a, type: 3}
  - {fileID: 3524593282344965122, guid: 94cb0a6a21a3e2343841ee3bf2427897, type: 3}
  - {fileID: 3524593282344965122, guid: 9ed30ad37f75ed94a82907de114fd79c, type: 3}
  - {fileID: 3524593282344965122, guid: 98fe48f562aa8f543820cc4ac2ff7f45, type: 3}
  - {fileID: 3524593282344965122, guid: e273901ea44f3074d8ddea56ebac5f60, type: 3}
  - {fileID: 3524593282344965122, guid: 95c7e168be84c7a42a4bc77e6ff5346a, type: 3}
  - {fileID: 3524593282344965122, guid: 852f3491158cb664e8712ea211229842, type: 3}
  - {fileID: 3524593282344965122, guid: 53a71a23ae4fdcc459f6b14c7338eadd, type: 3}
  - {fileID: 3524593282344965122, guid: 3a755031c9c7fe442bdcad7061f05639, type: 3}
  - {fileID: 3524593282344965122, guid: 493cffa96bf4e4447a26e1326860846d, type: 3}
  - {fileID: 3524593282344965122, guid: 0cd10ee402c652f40adcc247cb506bd3, type: 3}
  - {fileID: 3524593282344965122, guid: 6f64c0c8f10c26446a9a5cb72eeda969, type: 3}
  - {fileID: 3524593282344965122, guid: 3e9371dda0935864c8f99930338ae0f0, type: 3}
  - {fileID: 3524593282344965122, guid: 47d08300c6da6d349b0b2b7610c532e9, type: 3}
  - {fileID: 3524593282344965122, guid: 26a1fdd55be0b4f4c889e8368a99a2da, type: 3}
  - {fileID: 3524593282344965122, guid: ba3287866c2b5cb41a35b27c2426e3d7, type: 3}
  - {fileID: 3524593282344965122, guid: 361feb970efd3c54e8deeb844d51084d, type: 3}
  - {fileID: 3524593282344965122, guid: 341c264313da9dc4d85e6cdefca0d722, type: 3}
  - {fileID: 3524593282344965122, guid: 1d8ecd7c4eeae494983c309f3cb1dccd, type: 3}
  - {fileID: 3524593282344965122, guid: 7fa999c6611b06a46a6ec237f87930c7, type: 3}
  - {fileID: 3524593282344965122, guid: 0b31cf28ff9a5d34e9c5fb7e2ba21ca7, type: 3}
  - {fileID: 3524593282344965122, guid: 66abf2869c7cffa439a5b753fea3ba62, type: 3}
  - {fileID: 3524593282344965122, guid: 6804f8e604e50274488ca698db73015e, type: 3}
  - {fileID: 3524593282344965122, guid: dee8630fbfbfab445ae971643c706c05, type: 3}
  - {fileID: 3524593282344965122, guid: ccd8ac776b328714185c60f1bc4ba3eb, type: 3}
  - {fileID: 3524593282344965122, guid: 473e1c384ce18624e95addd2b1aa6cfb, type: 3}
  - {fileID: 3524593282344965122, guid: 8c596ca7b49301f4087a999dbcc095cc, type: 3}
  - {fileID: 3524593282344965122, guid: 63e4c533d0ecc884e9e2411e5f4a31c4, type: 3}
  - {fileID: 3524593282344965122, guid: 039dfc26f51213d4d8ab75f95f304e66, type: 3}
  - {fileID: 3524593282344965122, guid: 8de9748d4337d334d8886f8853d1b171, type: 3}
  - {fileID: 3524593282344965122, guid: 4e41be6076a97334481a67eee74c2373, type: 3}
  - {fileID: 3524593282344965122, guid: 580aef8695136034790b596d398c131e, type: 3}
  - {fileID: 3524593282344965122, guid: 2582bb7956ad29745b5825b60acd3bb7, type: 3}
  - {fileID: 3524593282344965122, guid: 4f34c933d14cc6640ab439bdbad88a6e, type: 3}
  graphicAnchor: {fileID: 627151910177144516}
--- !u!1001 &2393021998777754303
PrefabInstance:
  m_ObjectHideFlags: 0
  serializedVersion: 2
  m_Modification:
    m_TransformParent: {fileID: 627151910177144516}
    m_Modifications:
    - target: {fileID: 100000, guid: 583b8bc12e91cc14495dff625fb0d328, type: 3}
      propertyPath: m_Name
      value: empty_block
      objectReference: {fileID: 0}
    - target: {fileID: 400000, guid: 583b8bc12e91cc14495dff625fb0d328, type: 3}
      propertyPath: m_LocalPosition.x
      value: -0
      objectReference: {fileID: 0}
    - target: {fileID: 400000, guid: 583b8bc12e91cc14495dff625fb0d328, type: 3}
      propertyPath: m_LocalPosition.y
      value: 0
      objectReference: {fileID: 0}
    - target: {fileID: 400000, guid: 583b8bc12e91cc14495dff625fb0d328, type: 3}
      propertyPath: m_LocalPosition.z
      value: 0
      objectReference: {fileID: 0}
    - target: {fileID: 400000, guid: 583b8bc12e91cc14495dff625fb0d328, type: 3}
      propertyPath: m_LocalRotation.x
      value: 0
      objectReference: {fileID: 0}
    - target: {fileID: 400000, guid: 583b8bc12e91cc14495dff625fb0d328, type: 3}
      propertyPath: m_LocalRotation.y
      value: -0
      objectReference: {fileID: 0}
    - target: {fileID: 400000, guid: 583b8bc12e91cc14495dff625fb0d328, type: 3}
      propertyPath: m_LocalRotation.z
      value: -0
      objectReference: {fileID: 0}
    - target: {fileID: 400000, guid: 583b8bc12e91cc14495dff625fb0d328, type: 3}
      propertyPath: m_LocalRotation.w
      value: 1
      objectReference: {fileID: 0}
    - target: {fileID: 400000, guid: 583b8bc12e91cc14495dff625fb0d328, type: 3}
      propertyPath: m_RootOrder
      value: 0
      objectReference: {fileID: 0}
    - target: {fileID: 400000, guid: 583b8bc12e91cc14495dff625fb0d328, type: 3}
      propertyPath: m_LocalEulerAnglesHint.x
      value: 0
      objectReference: {fileID: 0}
    - target: {fileID: 400000, guid: 583b8bc12e91cc14495dff625fb0d328, type: 3}
      propertyPath: m_LocalEulerAnglesHint.y
      value: 0
      objectReference: {fileID: 0}
    - target: {fileID: 400000, guid: 583b8bc12e91cc14495dff625fb0d328, type: 3}
      propertyPath: m_LocalEulerAnglesHint.z
      value: 0
      objectReference: {fileID: 0}
    m_RemovedComponents: []
  m_SourcePrefab: {fileID: 100100000, guid: 583b8bc12e91cc14495dff625fb0d328, type: 3}
--- !u!1001 &3391539889111545729
PrefabInstance:
  m_ObjectHideFlags: 0
  serializedVersion: 2
  m_Modification:
    m_TransformParent: {fileID: 0}
    m_Modifications:
    - target: {fileID: 4183035028534852287, guid: 3fb6e2f04f1d0524ebf94db8f93e3da3,
        type: 3}
      propertyPath: m_Name
      value: PartTest
      objectReference: {fileID: 0}
    - target: {fileID: 4183035028534852259, guid: 3fb6e2f04f1d0524ebf94db8f93e3da3,
        type: 3}
      propertyPath: m_LocalPosition.x
      value: 0
      objectReference: {fileID: 0}
    - target: {fileID: 4183035028534852259, guid: 3fb6e2f04f1d0524ebf94db8f93e3da3,
        type: 3}
      propertyPath: m_LocalPosition.y
      value: 0
      objectReference: {fileID: 0}
    - target: {fileID: 4183035028534852259, guid: 3fb6e2f04f1d0524ebf94db8f93e3da3,
        type: 3}
      propertyPath: m_LocalPosition.z
      value: 0
      objectReference: {fileID: 0}
    - target: {fileID: 4183035028534852259, guid: 3fb6e2f04f1d0524ebf94db8f93e3da3,
        type: 3}
      propertyPath: m_LocalRotation.x
      value: 0
      objectReference: {fileID: 0}
    - target: {fileID: 4183035028534852259, guid: 3fb6e2f04f1d0524ebf94db8f93e3da3,
        type: 3}
      propertyPath: m_LocalRotation.y
      value: 0
      objectReference: {fileID: 0}
    - target: {fileID: 4183035028534852259, guid: 3fb6e2f04f1d0524ebf94db8f93e3da3,
        type: 3}
      propertyPath: m_LocalRotation.z
      value: 0
      objectReference: {fileID: 0}
    - target: {fileID: 4183035028534852259, guid: 3fb6e2f04f1d0524ebf94db8f93e3da3,
        type: 3}
      propertyPath: m_LocalRotation.w
      value: 1
      objectReference: {fileID: 0}
    - target: {fileID: 4183035028534852259, guid: 3fb6e2f04f1d0524ebf94db8f93e3da3,
        type: 3}
      propertyPath: m_RootOrder
      value: 0
      objectReference: {fileID: 0}
    - target: {fileID: 4183035028534852259, guid: 3fb6e2f04f1d0524ebf94db8f93e3da3,
        type: 3}
      propertyPath: m_LocalEulerAnglesHint.x
      value: 0
      objectReference: {fileID: 0}
    - target: {fileID: 4183035028534852259, guid: 3fb6e2f04f1d0524ebf94db8f93e3da3,
        type: 3}
      propertyPath: m_LocalEulerAnglesHint.y
      value: 0
      objectReference: {fileID: 0}
    - target: {fileID: 4183035028534852259, guid: 3fb6e2f04f1d0524ebf94db8f93e3da3,
        type: 3}
      propertyPath: m_LocalEulerAnglesHint.z
      value: 0
      objectReference: {fileID: 0}
    m_RemovedComponents: []
  m_SourcePrefab: {fileID: 100100000, guid: 3fb6e2f04f1d0524ebf94db8f93e3da3, type: 3}
--- !u!1 &1521103681642712382 stripped
GameObject:
  m_CorrespondingSourceObject: {fileID: 4183035028534852287, guid: 3fb6e2f04f1d0524ebf94db8f93e3da3,
    type: 3}
  m_PrefabInstance: {fileID: 3391539889111545729}
  m_PrefabAsset: {fileID: 0}
--- !u!4 &627151910177144516 stripped
Transform:
  m_CorrespondingSourceObject: {fileID: 2856756444401715525, guid: 3fb6e2f04f1d0524ebf94db8f93e3da3,
    type: 3}
  m_PrefabInstance: {fileID: 3391539889111545729}
  m_PrefabAsset: {fileID: 0}
--- !u!114 &8833507243644847395 stripped
MonoBehaviour:
  m_CorrespondingSourceObject: {fileID: 6163113993927209634, guid: 3fb6e2f04f1d0524ebf94db8f93e3da3,
    type: 3}
  m_PrefabInstance: {fileID: 3391539889111545729}
  m_PrefabAsset: {fileID: 0}
  m_GameObject: {fileID: 0}
  m_Enabled: 1
  m_EditorHideFlags: 0
  m_Script: {fileID: 11500000, guid: dda034320ecff5045bed309e12911276, type: 3}
  m_Name: 
  m_EditorClassIdentifier: 
