%YAML 1.1
%TAG !u! tag:unity3d.com,2011:
--- !u!1 &6791116224829901931
GameObject:
  m_ObjectHideFlags: 0
  m_CorrespondingSourceObject: {fileID: 0}
  m_PrefabInstance: {fileID: 0}
  m_PrefabAsset: {fileID: 0}
  serializedVersion: 6
  m_Component:
  - component: {fileID: 2635235031612241628}
  - component: {fileID: 2197420983874168974}
  m_Layer: 0
  m_Name: Planet_x
  m_TagString: Untagged
  m_Icon: {fileID: 0}
  m_NavMeshLayer: 0
  m_StaticEditorFlags: 0
  m_IsActive: 1
--- !u!4 &2635235031612241628
Transform:
  m_ObjectHideFlags: 0
  m_CorrespondingSourceObject: {fileID: 0}
  m_PrefabInstance: {fileID: 0}
  m_PrefabAsset: {fileID: 0}
  m_GameObject: {fileID: 6791116224829901931}
  m_LocalRotation: {x: 0, y: 0, z: 0, w: 1}
  m_LocalPosition: {x: 0, y: 0, z: 0}
  m_LocalScale: {x: 1, y: 1, z: 1}
  m_Children:
  - {fileID: 2892651118885928280}
  m_Father: {fileID: 0}
  m_RootOrder: 0
  m_LocalEulerAnglesHint: {x: 0, y: 0, z: 0}
--- !u!114 &2197420983874168974
MonoBehaviour:
  m_ObjectHideFlags: 0
  m_CorrespondingSourceObject: {fileID: 0}
  m_PrefabInstance: {fileID: 0}
  m_PrefabAsset: {fileID: 0}
  m_GameObject: {fileID: 6791116224829901931}
  m_Enabled: 1
  m_EditorHideFlags: 0
  m_Script: {fileID: 11500000, guid: a1a6e0b1b26eb99458da86f3a31dc6fc, type: 3}
  m_Name: 
  m_EditorClassIdentifier: 
  life: 0
  speed: 0
  rotate: 0
--- !u!1001 &2892651118885791704
PrefabInstance:
  m_ObjectHideFlags: 0
  serializedVersion: 2
  m_Modification:
    m_TransformParent: {fileID: 2635235031612241628}
    m_Modifications:
    - target: {fileID: 100000, guid: bc2928ed64408b148b5c515fc5f66537, type: 3}
      propertyPath: m_Name
      value: RingPlanet
      objectReference: {fileID: 0}
    - target: {fileID: 400000, guid: bc2928ed64408b148b5c515fc5f66537, type: 3}
      propertyPath: m_LocalPosition.x
      value: 0
      objectReference: {fileID: 0}
    - target: {fileID: 400000, guid: bc2928ed64408b148b5c515fc5f66537, type: 3}
      propertyPath: m_LocalPosition.y
      value: 0
      objectReference: {fileID: 0}
    - target: {fileID: 400000, guid: bc2928ed64408b148b5c515fc5f66537, type: 3}
      propertyPath: m_LocalPosition.z
      value: 0
      objectReference: {fileID: 0}
    - target: {fileID: 400000, guid: bc2928ed64408b148b5c515fc5f66537, type: 3}
      propertyPath: m_LocalRotation.x
      value: -0.32251298
      objectReference: {fileID: 0}
    - target: {fileID: 400000, guid: bc2928ed64408b148b5c515fc5f66537, type: 3}
      propertyPath: m_LocalRotation.y
      value: 0.30353007
      objectReference: {fileID: 0}
    - target: {fileID: 400000, guid: bc2928ed64408b148b5c515fc5f66537, type: 3}
      propertyPath: m_LocalRotation.z
      value: -0.21008119
      objectReference: {fileID: 0}
    - target: {fileID: 400000, guid: bc2928ed64408b148b5c515fc5f66537, type: 3}
      propertyPath: m_LocalRotation.w
      value: 0.8716196
      objectReference: {fileID: 0}
    - target: {fileID: 400000, guid: bc2928ed64408b148b5c515fc5f66537, type: 3}
      propertyPath: m_RootOrder
      value: 0
      objectReference: {fileID: 0}
    - target: {fileID: 400000, guid: bc2928ed64408b148b5c515fc5f66537, type: 3}
      propertyPath: m_LocalEulerAnglesHint.x
      value: -25.765001
      objectReference: {fileID: 0}
    - target: {fileID: 400000, guid: bc2928ed64408b148b5c515fc5f66537, type: 3}
      propertyPath: m_LocalEulerAnglesHint.y
      value: 47.562004
      objectReference: {fileID: 0}
    - target: {fileID: 400000, guid: bc2928ed64408b148b5c515fc5f66537, type: 3}
      propertyPath: m_LocalEulerAnglesHint.z
      value: -38.612003
      objectReference: {fileID: 0}
    - target: {fileID: 400000, guid: bc2928ed64408b148b5c515fc5f66537, type: 3}
      propertyPath: m_LocalScale.x
      value: 4
      objectReference: {fileID: 0}
    - target: {fileID: 400000, guid: bc2928ed64408b148b5c515fc5f66537, type: 3}
      propertyPath: m_LocalScale.y
      value: 4
      objectReference: {fileID: 0}
    - target: {fileID: 400000, guid: bc2928ed64408b148b5c515fc5f66537, type: 3}
      propertyPath: m_LocalScale.z
      value: 4
      objectReference: {fileID: 0}
    - target: {fileID: 2300000, guid: bc2928ed64408b148b5c515fc5f66537, type: 3}
      propertyPath: m_Materials.Array.data[0]
      value: 
      objectReference: {fileID: 2100000, guid: 4d169d457eb1c3d46846361be94f2c63, type: 2}
    m_RemovedComponents: []
  m_SourcePrefab: {fileID: 100100000, guid: bc2928ed64408b148b5c515fc5f66537, type: 3}
--- !u!4 &2892651118885928280 stripped
Transform:
  m_CorrespondingSourceObject: {fileID: 400000, guid: bc2928ed64408b148b5c515fc5f66537,
    type: 3}
  m_PrefabInstance: {fileID: 2892651118885791704}
  m_PrefabAsset: {fileID: 0}
