%YAML 1.1
%TAG !u! tag:unity3d.com,2011:
--- !u!74 &7400000
AnimationClip:
  m_ObjectHideFlags: 0
  m_PrefabParentObject: {fileID: 0}
  m_PrefabInternal: {fileID: 0}
  m_Name: WakkaUVanim01
  serializedVersion: 6
  m_Legacy: 1
  m_Compressed: 0
  m_UseHighQualityCurve: 1
  m_RotationCurves: []
  m_CompressedRotationCurves: []
  m_EulerCurves: []
  m_PositionCurves: []
  m_ScaleCurves: []
  m_FloatCurves:
  - curve:
      serializedVersion: 2
      m_Curve:
      - serializedVersion: 2
        time: 0
        value: 0.25
        inSlope: 2.2847195e-35
        outSlope: 7.1165706e-25
        tangentMode: 34
      m_PreInfinity: 2
      m_PostInfinity: 2
      m_RotationOrder: 4
    attribute: _MainTex.scale.x
    path: 
    classID: 21
    script: {fileID: 0}
  - curve:
      serializedVersion: 2
      m_Curve:
      - serializedVersion: 2
        time: 0
        value: 0.25
        inSlope: 5.8984915e-30
        outSlope: 2.201081e-39
        tangentMode: 34
      m_PreInfinity: 2
      m_PostInfinity: 2
      m_RotationOrder: 4
    attribute: _MainTex.scale.y
    path: 
    classID: 21
    script: {fileID: 0}
  - curve:
      serializedVersion: 2
      m_Curve:
      - serializedVersion: 2
        time: 0
        value: 0
        inSlope: Infinity
        outSlope: 7.4999995
        tangentMode: 7
      - serializedVersion: 2
        time: 0.033333335
        value: 0.25
        inSlope: Infinity
        outSlope: 7.4999995
        tangentMode: 7
      - serializedVersion: 2
        time: 0.06666667
        value: 0.5
        inSlope: Infinity
        outSlope: 7.5
        tangentMode: 7
      - serializedVersion: 2
        time: 0.1
        value: 0.75
        inSlope: Infinity
        outSlope: 7.4999995
        tangentMode: 7
      - serializedVersion: 2
        time: 0.13333334
        value: 0.004823151
        inSlope: Infinity
        outSlope: -11.250001
        tangentMode: 7
      - serializedVersion: 2
        time: 0.16666667
        value: 0.25
        inSlope: Infinity
        outSlope: 7.5000005
        tangentMode: 7
      - serializedVersion: 2
        time: 0.2
        value: 0.5
        inSlope: Infinity
        outSlope: 7.499999
        tangentMode: 7
      - serializedVersion: 2
        time: 0.23333335
        value: 0.75
        inSlope: Infinity
        outSlope: 7.499999
        tangentMode: 7
      - serializedVersion: 2
        time: 0.26666668
        value: 0
        inSlope: Infinity
        outSlope: -11.250001
        tangentMode: 7
      - serializedVersion: 2
        time: 0.3
        value: 0.25
        inSlope: Infinity
        outSlope: 7.5000005
        tangentMode: 7
      - serializedVersion: 2
        time: 0.33333334
        value: 0.5
        inSlope: Infinity
        outSlope: 7.5000005
        tangentMode: 7
      - serializedVersion: 2
        time: 0.36666667
        value: 0.75
        inSlope: Infinity
        outSlope: 7.5000005
        tangentMode: 7
      - serializedVersion: 2
        time: 0.4
        value: 0
        inSlope: Infinity
        outSlope: -11.250004
        tangentMode: 7
      - serializedVersion: 2
        time: 0.43333337
        value: 0.25
        inSlope: Infinity
        outSlope: 7.5000005
        tangentMode: 7
      - serializedVersion: 2
        time: 0.46666667
        value: 0.5
        inSlope: Infinity
        outSlope: 7.5000005
        tangentMode: 7
      - serializedVersion: 2
        time: 0.5
        value: 0.75
        inSlope: Infinity
        outSlope: 7.5000005
        tangentMode: 7
      m_PreInfinity: 2
      m_PostInfinity: 2
      m_RotationOrder: 4
    attribute: _MainTex.offset.x
    path: 
    classID: 21
    script: {fileID: 0}
  - curve:
      serializedVersion: 2
      m_Curve:
      - serializedVersion: 2
        time: 0
        value: 0.75
        inSlope: -1.5
        outSlope: Infinity
        tangentMode: 97
      - serializedVersion: 2
        time: 0.13333334
        value: 0.5
        inSlope: -1.5
        outSlope: Infinity
        tangentMode: 97
      - serializedVersion: 2
        time: 0.26666668
        value: 0.25
        inSlope: 0
        outSlope: Infinity
        tangentMode: 103
      - serializedVersion: 2
        time: 0.4
        value: 0
        inSlope: 0
        outSlope: Infinity
        tangentMode: 97
      m_PreInfinity: 2
      m_PostInfinity: 2
      m_RotationOrder: 4
    attribute: _MainTex.offset.y
    path: 
    classID: 21
    script: {fileID: 0}
  - curve:
      serializedVersion: 2
      m_Curve:
      - serializedVersion: 2
        time: 0.5
        value: 0.3
        inSlope: 0
        outSlope: 0
        tangentMode: 34
      m_PreInfinity: 2
      m_PostInfinity: 2
      m_RotationOrder: 4
    attribute: deadTime
    path: 
    classID: 114
    script: {fileID: 11500000, guid: b9d32c31da310d6418b54a42b47bd885, type: 3}
  m_PPtrCurves: []
  m_SampleRate: 60
  m_WrapMode: 0
  m_Bounds:
    m_Center: {x: 0, y: 0, z: 0}
    m_Extent: {x: 0, y: 0, z: 0}
  m_ClipBindingConstant:
    genericBindings: []
    pptrCurveMapping: []
  m_AnimationClipSettings:
    serializedVersion: 2
    m_AdditiveReferencePoseClip: {fileID: 0}
    m_AdditiveReferencePoseTime: 0
    m_StartTime: 0
    m_StopTime: 1
    m_OrientationOffsetY: 0
    m_Level: 0
    m_CycleOffset: 0
    m_HasAdditiveReferencePose: 0
    m_LoopTime: 0
    m_LoopBlend: 0
    m_LoopBlendOrientation: 0
    m_LoopBlendPositionY: 0
    m_LoopBlendPositionXZ: 0
    m_KeepOriginalOrientation: 0
    m_KeepOriginalPositionY: 1
    m_KeepOriginalPositionXZ: 0
    m_HeightFromFeet: 0
    m_Mirror: 0
  m_EditorCurves:
  - curve:
      serializedVersion: 2
      m_Curve:
      - serializedVersion: 2
        time: 0
        value: 0.25
        inSlope: 2.2847195e-35
        outSlope: 7.1165706e-25
        tangentMode: 34
      m_PreInfinity: 2
      m_PostInfinity: 2
      m_RotationOrder: 4
    attribute: _MainTex.scale.x
    path: 
    classID: 21
    script: {fileID: 0}
  - curve:
      serializedVersion: 2
      m_Curve:
      - serializedVersion: 2
        time: 0
        value: 0.25
        inSlope: 5.8984915e-30
        outSlope: 2.201081e-39
        tangentMode: 34
      m_PreInfinity: 2
      m_PostInfinity: 2
      m_RotationOrder: 4
    attribute: _MainTex.scale.y
    path: 
    classID: 21
    script: {fileID: 0}
  - curve:
      serializedVersion: 2
      m_Curve:
      - serializedVersion: 2
        time: 0
        value: 0
        inSlope: Infinity
        outSlope: 7.4999995
        tangentMode: 7
      - serializedVersion: 2
        time: 0.033333335
        value: 0.25
        inSlope: Infinity
        outSlope: 7.4999995
        tangentMode: 7
      - serializedVersion: 2
        time: 0.06666667
        value: 0.5
        inSlope: Infinity
        outSlope: 7.5
        tangentMode: 7
      - serializedVersion: 2
        time: 0.1
        value: 0.75
        inSlope: Infinity
        outSlope: 7.4999995
        tangentMode: 7
      - serializedVersion: 2
        time: 0.13333334
        value: 0.004823151
        inSlope: Infinity
        outSlope: -11.250001
        tangentMode: 7
      - serializedVersion: 2
        time: 0.16666667
        value: 0.25
        inSlope: Infinity
        outSlope: 7.5000005
        tangentMode: 7
      - serializedVersion: 2
        time: 0.2
        value: 0.5
        inSlope: Infinity
        outSlope: 7.499999
        tangentMode: 7
      - serializedVersion: 2
        time: 0.23333335
        value: 0.75
        inSlope: Infinity
        outSlope: 7.499999
        tangentMode: 7
      - serializedVersion: 2
        time: 0.26666668
        value: 0
        inSlope: Infinity
        outSlope: -11.250001
        tangentMode: 7
      - serializedVersion: 2
        time: 0.3
        value: 0.25
        inSlope: Infinity
        outSlope: 7.5000005
        tangentMode: 7
      - serializedVersion: 2
        time: 0.33333334
        value: 0.5
        inSlope: Infinity
        outSlope: 7.5000005
        tangentMode: 7
      - serializedVersion: 2
        time: 0.36666667
        value: 0.75
        inSlope: Infinity
        outSlope: 7.5000005
        tangentMode: 7
      - serializedVersion: 2
        time: 0.4
        value: 0
        inSlope: Infinity
        outSlope: -11.250004
        tangentMode: 7
      - serializedVersion: 2
        time: 0.43333337
        value: 0.25
        inSlope: Infinity
        outSlope: 7.5000005
        tangentMode: 7
      - serializedVersion: 2
        time: 0.46666667
        value: 0.5
        inSlope: Infinity
        outSlope: 7.5000005
        tangentMode: 7
      - serializedVersion: 2
        time: 0.5
        value: 0.75
        inSlope: Infinity
        outSlope: 7.5000005
        tangentMode: 7
      m_PreInfinity: 2
      m_PostInfinity: 2
      m_RotationOrder: 4
    attribute: _MainTex.offset.x
    path: 
    classID: 21
    script: {fileID: 0}
  - curve:
      serializedVersion: 2
      m_Curve:
      - serializedVersion: 2
        time: 0
        value: 0.75
        inSlope: -1.5
        outSlope: Infinity
        tangentMode: 97
      - serializedVersion: 2
        time: 0.13333334
        value: 0.5
        inSlope: -1.5
        outSlope: Infinity
        tangentMode: 97
      - serializedVersion: 2
        time: 0.26666668
        value: 0.25
        inSlope: 0
        outSlope: Infinity
        tangentMode: 103
      - serializedVersion: 2
        time: 0.4
        value: 0
        inSlope: 0
        outSlope: Infinity
        tangentMode: 97
      m_PreInfinity: 2
      m_PostInfinity: 2
      m_RotationOrder: 4
    attribute: _MainTex.offset.y
    path: 
    classID: 21
    script: {fileID: 0}
  - curve:
      serializedVersion: 2
      m_Curve:
      - serializedVersion: 2
        time: 0.5
        value: 0.3
        inSlope: 0
        outSlope: 0
        tangentMode: 34
      m_PreInfinity: 2
      m_PostInfinity: 2
      m_RotationOrder: 4
    attribute: deadTime
    path: 
    classID: 114
    script: {fileID: 11500000, guid: b9d32c31da310d6418b54a42b47bd885, type: 3}
  m_EulerEditorCurves: []
  m_HasGenericRootTransform: 0
  m_HasMotionFloatCurves: 0
  m_GenerateMotionCurves: 0
  m_Events: []
--- !u!1002 &7400001
EditorExtensionImpl:
  serializedVersion: 6
