%YAML 1.1
%TAG !u! tag:unity3d.com,2011:
--- !u!1045 &1
EditorBuildSettings:
  m_ObjectHideFlags: 0
  serializedVersion: 2
  m_Scenes:
  - enabled: 1
    path: Assets/_Project/Scenes/Menu.unity
    guid: 87a53d4a213acad42956f107bc287240
  - enabled: 1
    path: Assets/_Project/Scenes/Gameplay.unity
    guid: fb2cb91be8eedbb4190224ceb806935f
  m_configObjects: {}
