%YAML 1.1
%TAG !u! tag:unity3d.com,2011:
--- !u!21 &2100000
Material:
  serializedVersion: 6
  m_ObjectHideFlags: 0
  m_CorrespondingSourceObject: {fileID: 0}
  m_PrefabInstance: {fileID: 0}
  m_PrefabAsset: {fileID: 0}
  m_Name: Player 1
  m_Shader: {fileID: 4800000, guid: 9dbe3341a2450da43be09ba0d32b87e4, type: 3}
  m_ShaderKeywords: _DYNAMICRAMP_ON
  m_LightmapFlags: 4
  m_EnableInstancingVariants: 0
  m_DoubleSidedGI: 0
  m_CustomRenderQueue: -1
  stringTagMap: {}
  disabledShaderPasses: []
  m_SavedProperties:
    serializedVersion: 3
    m_TexEnvs:
    - _Albedo:
        m_Texture: {fileID: 0}
        m_Scale: {x: 1, y: 1}
        m_Offset: {x: 0, y: 0}
    - _Normal:
        m_Texture: {fileID: 0}
        m_Scale: {x: 1, y: 1}
        m_Offset: {x: 0, y: 0}
    - _Pattern:
        m_Texture: {fileID: 2800000, guid: 422748453a436b543b00250626e8fa03, type: 3}
        m_Scale: {x: 1, y: 1}
        m_Offset: {x: 0, y: 0}
    - _ToonRamp:
        m_Texture: {fileID: 2800000, guid: 6997bbd7ddbffb347abcff86c5f4e303, type: 3}
        m_Scale: {x: 1, y: 1}
        m_Offset: {x: 0, y: 0}
    - _texcoord:
        m_Texture: {fileID: 0}
        m_Scale: {x: 1, y: 1}
        m_Offset: {x: 0, y: 0}
    m_Floats:
    - _ASEOutlineWidth: 0.0002
    - _Float0: -0.3
    - _LOLWTFCASHMONe: 1
    - _PatternMix: 0
    - _RampA: -1.46
    - __dirty: 0
    - _blinpower: 0
    - _dynamicramp: 1
    - _offset: 0.5
    - _rimOffset: 1
    m_Colors:
    - _ASEOutlineColor: {r: 0, g: 1, b: 0.2288868, a: 0}
    - _ColorRim: {r: 0.1093361, g: 0.5636307, b: 0.8584906, a: 0}
    - _Tiling: {r: 1.49, g: 2.11, b: 0, a: 0}
    - _tint: {r: 0.5188679, g: 0.5188679, b: 0.5188679, a: 0}
